--Logging of 20 VSCM UFR started at 10/15/2020, 20:23:25--
--Logging of 20 VSCM UFR started at 10/15/2020, 20:23:27--
--Logging of 20 VSCM UFR started at 10/15/2020, 20:24:02--
--Logging of 20 VSCM UFR started at 10/15/2020, 20:24:07--
--Logging of 20 VSCM UFR started at 10/15/2020, 20:24:39--
--Logging of 20 VSCM UFR started at 10/15/2020, 20:24:43--
