--Logging of c VSCM UFR started at 10/14/2020, 15:20:38--
--Logging of c VSCM UFR started at 10/15/2020, 15:26:46--
--Logging of c VSCM UFR started at 10/15/2020, 15:26:46--
--Logging of c VSCM UFR started at 10/15/2020, 15:29:14--
--Logging of c VSCM UFR started at 10/15/2020, 15:29:14--
--Logging of c VSCM UFR started at 10/15/2020, 15:31:41--
--Logging of c VSCM UFR started at 10/15/2020, 15:31:41--
--Logging of c VSCM UFR started at 10/15/2020, 15:32:39--
--Logging of c VSCM UFR started at 10/15/2020, 15:32:39--
--Logging of c VSCM UFR started at 10/15/2020, 15:38:16--
--Logging of c VSCM UFR started at 10/15/2020, 15:38:16--
--Logging of c VSCM UFR started at 10/15/2020, 15:39:07--
--Logging of c VSCM UFR started at 10/15/2020, 15:39:07--
--Logging of c VSCM UFR started at 10/15/2020, 15:40:05--
--Logging of c VSCM UFR started at 10/15/2020, 15:40:05--
--Logging of c VSCM UFR started at 10/15/2020, 15:40:53--
--Logging of c VSCM UFR started at 10/15/2020, 15:40:53--
--Logging of c VSCM UFR started at 10/15/2020, 15:41:50--
--Logging of c VSCM UFR started at 10/15/2020, 15:41:50--
--Logging of c VSCM UFR started at 10/15/2020, 15:43:59--
--Logging of c VSCM UFR started at 10/15/2020, 15:43:59--
--Logging of c VSCM UFR started at 10/15/2020, 15:44:26--
--Logging of c VSCM UFR started at 10/15/2020, 15:44:26--
--Logging of c VSCM UFR started at 10/15/2020, 15:45:06--
--Logging of c VSCM UFR started at 10/15/2020, 15:45:06--
--Logging of c VSCM UFR started at 10/15/2020, 15:46:39--
--Logging of c VSCM UFR started at 10/15/2020, 15:46:39--
--Logging of c VSCM UFR started at 10/15/2020, 15:52:26--
--Logging of c VSCM UFR started at 10/15/2020, 15:52:26--
--Logging of c VSCM UFR started at 10/15/2020, 23:09:05--
--Logging of c VSCM UFR started at 10/17/2020, 16:47:16--
--Logging of c VSCM UFR started at 10/17/2020, 16:55:31--
--Logging of c VSCM UFR started at 10/17/2020, 17:16:26--
--Logging of c VSCM UFR started at 10/17/2020, 17:16:52--
--Logging of c VSCM UFR started at 10/17/2020, 17:17:55--
