--Logging of 3 VSCM UFR started at 11/04/2020, 15:56:22--
--Logging of 3 VSCM UFR started at 11/04/2020, 16:08:25--
--Logging of 3 VSCM UFR started at 11/04/2020, 16:11:03--
--Logging of 3 VSCM UFR started at 11/04/2020, 16:19:41--
--Logging of 3 VSCM UFR started at 11/04/2020, 16:23:24--
