--Logging of RUFFELBAAS2 VSCM UFR started at 10/15/2020, 22:53:26--
--Logging of RUFFELBAAS2 VSCM UFR started at 10/15/2020, 23:07:57--
--Logging of RUFFELBAAS2 VSCM UFR started at 10/15/2020, 23:09:05--
