--Logging of a VSCM UFR started at 10/14/2020, 15:20:38--
--Logging of a VSCM UFR started at 10/15/2020, 15:26:46--
--Logging of a VSCM UFR started at 10/15/2020, 15:26:46--
--Logging of a VSCM UFR started at 10/15/2020, 15:29:14--
--Logging of a VSCM UFR started at 10/15/2020, 15:29:14--
--Logging of a VSCM UFR started at 10/15/2020, 15:31:41--
--Logging of a VSCM UFR started at 10/15/2020, 15:31:41--
--Logging of a VSCM UFR started at 10/15/2020, 15:32:39--
--Logging of a VSCM UFR started at 10/15/2020, 15:32:39--
--Logging of a VSCM UFR started at 10/15/2020, 15:38:16--
--Logging of a VSCM UFR started at 10/15/2020, 15:38:16--
--Logging of a VSCM UFR started at 10/15/2020, 15:39:07--
--Logging of a VSCM UFR started at 10/15/2020, 15:39:07--
--Logging of a VSCM UFR started at 10/15/2020, 15:40:05--
--Logging of a VSCM UFR started at 10/15/2020, 15:40:05--
--Logging of a VSCM UFR started at 10/15/2020, 15:40:53--
--Logging of a VSCM UFR started at 10/15/2020, 15:40:53--
--Logging of a VSCM UFR started at 10/15/2020, 15:41:50--
--Logging of a VSCM UFR started at 10/15/2020, 15:41:50--
--Logging of a VSCM UFR started at 10/15/2020, 15:43:59--
--Logging of a VSCM UFR started at 10/15/2020, 15:43:59--
--Logging of a VSCM UFR started at 10/15/2020, 15:44:26--
--Logging of a VSCM UFR started at 10/15/2020, 15:44:26--
--Logging of a VSCM UFR started at 10/15/2020, 15:45:06--
--Logging of a VSCM UFR started at 10/15/2020, 15:45:06--
--Logging of a VSCM UFR started at 10/15/2020, 15:46:39--
--Logging of a VSCM UFR started at 10/15/2020, 15:46:39--
--Logging of a VSCM UFR started at 10/15/2020, 15:52:26--
--Logging of a VSCM UFR started at 10/15/2020, 15:52:26--
--Logging of a VSCM UFR started at 10/15/2020, 21:14:29--
--Logging of a VSCM UFR started at 10/15/2020, 21:17:40--
--Logging of a VSCM UFR started at 10/15/2020, 21:17:53--
--Logging of a VSCM UFR started at 10/15/2020, 21:18:20--
--Logging of a VSCM UFR started at 10/15/2020, 21:20:01--
--Logging of a VSCM UFR started at 10/15/2020, 21:20:51--
--Logging of a VSCM UFR started at 10/15/2020, 21:32:46--
--Logging of a VSCM UFR started at 10/15/2020, 21:33:15--
--Logging of a VSCM UFR started at 10/15/2020, 21:33:39--
--Logging of a VSCM UFR started at 10/15/2020, 21:35:06--
--Logging of a VSCM UFR started at 10/15/2020, 21:37:10--
--Logging of a VSCM UFR started at 10/15/2020, 21:37:59--
--Logging of a VSCM UFR started at 10/15/2020, 21:43:59--
--Logging of a VSCM UFR started at 10/15/2020, 21:45:08--
--Logging of a VSCM UFR started at 10/15/2020, 21:45:15--
--Logging of a VSCM UFR started at 10/15/2020, 21:51:41--
--Logging of a VSCM UFR started at 10/17/2020, 16:47:16--
--Logging of a VSCM UFR started at 10/17/2020, 16:55:31--
--Logging of a VSCM UFR started at 10/17/2020, 17:16:26--
--Logging of a VSCM UFR started at 10/17/2020, 17:16:52--
--Logging of a VSCM UFR started at 10/17/2020, 17:17:55--
--Logging of a VSCM UFR started at 10/17/2020, 17:20:24--
--Logging of a VSCM UFR started at 10/17/2020, 17:22:35--
--Logging of a VSCM UFR started at 10/17/2020, 17:27:50--
--Logging of a VSCM UFR started at 10/17/2020, 18:01:42--
--Logging of a VSCM UFR started at 10/17/2020, 18:03:27--
--Logging of a VSCM UFR started at 10/17/2020, 18:05:04--
--Logging of a VSCM UFR started at 10/19/2020, 15:38:32--
